Take-home_Ex02 – ISSS608 Visual Analytics and Applications
…
5.1.4 Combine the data

step1_songs <- bind_rows(direct_songs, artist_songs) %>%
  distinct(song_id, song_name, release_date, genre)
step1_songs

# A tibble: 109 × 4
   song_id song_name                    release_date genre          
     <int> <chr>                        <chr>        <chr>          
 1     196 Radiant Dreams               2017         Indie Folk     
 2     925 Liminal Passage              2027         Indie Folk     
 3    1069 Behind the Picture Glass     2026         Synthwave      
 4    1313 Radiance of the Heart        2029         Synthwave      
 5    1629 Legionary's Lament           2023         Desert Rock    
 6    1874 Dusty Miles                  2023         Dream Pop      
 7    2260 Inherited Arguments          2029         Symphonic Metal
 8    2272 Borrowed Time                2022         Space Rock     
 9    2379 Unwanted (And Still Waiting) 2027         Synthpop       
10    3053 Dreaming in Technicolor      2024         Desert Rock    
# ℹ 99 more rows
…
step2_songs <- nodes_tbl %>%
  filter(
    id %in% second_edges$source,
    `Node Type` == "Song",
    genre != "Oceanus Folk"
  ) %>%
  select(song_id = id, song_name = name, release_date, genre) %>%
  distinct()
step2_songs

# A tibble: 70 × 4
   song_id song_name                         release_date genre     
     <int> <chr>                             <chr>        <chr>     
 1     210 Luminous Path                     2029         Darkwave  
 2     321 Soil of My Soul                   2025         Space Rock
 3     901 Approaching Silhouettes           2029         Space Rock
 4    1076 Snapshot Shadows                  2025         Dream Pop 
 5    1358 If Freedom Were an Open Door      2027         Dream Pop 
 6    1970 Footsteps in the Forest's Embrace 2027         Darkwave  
 7    3358 Carry Me Through                  2017         Dream Pop 
 8    3580 Shadows of Unexpressed Feelings   2027         Dream Pop 
 9    3652 Wishful Thinking Anthem           2025         Dream Pop 
10    4085 Balcony Heartbreak                2023         Indie Folk
# ℹ 60 more rows
…
5.2.2 Grouping the data by Genre and rel_tyoe

genre_influence_counts <- infl_genre %>%
  group_by(genre, rel_type) %>%
  summarise(count = n(), .groups = "drop") %>%
  pivot_wider(
    names_from  = rel_type,
    values_from = count,
    values_fill = 0
  ) %>%
  arrange(genre)
genre_influence_counts

# A tibble: 24 × 6
   genre   CoverOf DirectlySamples InStyleOf InterpolatesFrom LyricalReferenceTo
   <chr>     <int>           <int>     <int>            <int>              <int>
 1 Altern…      53              22        87               67                 75
 2 Americ…      29              13        62               39                 43
 3 Avant-…      29              16        47               28                 33
 4 Blues …      26               9        44               39                 33
 5 Celtic…       0               0         0                0                  1
 6 Darkwa…      27              19        47               30                 28
 7 Desert…      19               9        35               35                 20
 8 Doom M…     156              83       270              178                165
 9 Dream …     168              77       245              188                168
10 Emo/Po…      45              18        71               37                 42
# ℹ 14 more rows
…
Warning in left_join(., all_influence_edges, by = c(song_id = "influenced_song_id")): Detected an unexpected many-to-many relationship between `x` and `y`.
ℹ Row 1 of `x` matches multiple rows in `y`.
ℹ Row 12 of `y` matches multiple rows in `x`.
ℹ If a many-to-many relationship is expected, set `relationship =
  "many-to-many"` to silence this warning.

5.3.3 Summary Table

table_top5

# A tibble: 82 × 4
   performer     song_or_album                   node_type influence_type    
   <chr>         <chr>                           <chr>     <chr>             
 1 Filippo Pelli Carry Me Through                Song      CoverOf           
 2 Filippo Pelli Carry Me Through                Song      InStyleOf         
 3 Filippo Pelli Carry Me Through                Song      CoverOf           
 4 Filippo Pelli Carry Me Through                Song      InStyleOf         
 5 Filippo Pelli Glance My Way                   Song      InStyleOf         
 6 Filippo Pelli Lonesome Trail Ballad           Song      CoverOf           
 7 Filippo Pelli Roadside Memories               Song      CoverOf           
 8 Filippo Pelli Welcome to the Kemono Sanctuary Song      LyricalReferenceTo
 9 Guiying Liao  Aerial Conquistadors            Song      InterpolatesFrom  
10 Guiying Liao  Aerial Conquistadors            Song      InterpolatesFrom  
# ℹ 72 more rows
…
